%YAML 1.1
%TAG !u! tag:unity3d.com,2011:
--- !u!1001 &5204923693655465565
PrefabInstance:
  m_ObjectHideFlags: 0
  serializedVersion: 2
  m_Modification:
    m_TransformParent: {fileID: 0}
    m_Modifications:
    - target: {fileID: 800178195220352184, guid: fe9ef16c3378cb746816a17e6a634b65,
        type: 3}
      propertyPath: m_Name
      value: ArrowRedProjectile
      objectReference: {fileID: 0}
    - target: {fileID: 7166993353659362261, guid: fe9ef16c3378cb746816a17e6a634b65,
        type: 3}
      propertyPath: hitEffect
      value: 
      objectReference: {fileID: 3254537017538269049, guid: d3d1fb70b28afce43aea0b570f70328b,
        type: 3}
    - target: {fileID: 4132257220589978697, guid: fe9ef16c3378cb746816a17e6a634b65,
        type: 3}
      propertyPath: m_LocalPosition.x
      value: 0
      objectReference: {fileID: 0}
    - target: {fileID: 4132257220589978697, guid: fe9ef16c3378cb746816a17e6a634b65,
        type: 3}
      propertyPath: m_LocalPosition.y
      value: 0
      objectReference: {fileID: 0}
    - target: {fileID: 4132257220589978697, guid: fe9ef16c3378cb746816a17e6a634b65,
        type: 3}
      propertyPath: m_LocalPosition.z
      value: 0
      objectReference: {fileID: 0}
    - target: {fileID: 4132257220589978697, guid: fe9ef16c3378cb746816a17e6a634b65,
        type: 3}
      propertyPath: m_LocalRotation.x
      value: 0
      objectReference: {fileID: 0}
    - target: {fileID: 4132257220589978697, guid: fe9ef16c3378cb746816a17e6a634b65,
        type: 3}
      propertyPath: m_LocalRotation.y
      value: 0
      objectReference: {fileID: 0}
    - target: {fileID: 4132257220589978697, guid: fe9ef16c3378cb746816a17e6a634b65,
        type: 3}
      propertyPath: m_LocalRotation.z
      value: 0
      objectReference: {fileID: 0}
    - target: {fileID: 4132257220589978697, guid: fe9ef16c3378cb746816a17e6a634b65,
        type: 3}
      propertyPath: m_LocalRotation.w
      value: 1
      objectReference: {fileID: 0}
    - target: {fileID: 4132257220589978697, guid: fe9ef16c3378cb746816a17e6a634b65,
        type: 3}
      propertyPath: m_RootOrder
      value: 0
      objectReference: {fileID: 0}
    - target: {fileID: 4132257220589978697, guid: fe9ef16c3378cb746816a17e6a634b65,
        type: 3}
      propertyPath: m_LocalEulerAnglesHint.x
      value: 0
      objectReference: {fileID: 0}
    - target: {fileID: 4132257220589978697, guid: fe9ef16c3378cb746816a17e6a634b65,
        type: 3}
      propertyPath: m_LocalEulerAnglesHint.y
      value: 0
      objectReference: {fileID: 0}
    - target: {fileID: 4132257220589978697, guid: fe9ef16c3378cb746816a17e6a634b65,
        type: 3}
      propertyPath: m_LocalEulerAnglesHint.z
      value: 0
      objectReference: {fileID: 0}
    - target: {fileID: 4036555450032213455, guid: fe9ef16c3378cb746816a17e6a634b65,
        type: 3}
      propertyPath: m_Parameters.colorGradient.key0.r
      value: 0.83137256
      objectReference: {fileID: 0}
    - target: {fileID: 4036555450032213455, guid: fe9ef16c3378cb746816a17e6a634b65,
        type: 3}
      propertyPath: m_Parameters.colorGradient.key0.g
      value: 0
      objectReference: {fileID: 0}
    - target: {fileID: 4036555450032213455, guid: fe9ef16c3378cb746816a17e6a634b65,
        type: 3}
      propertyPath: m_Parameters.colorGradient.key0.b
      value: 0.052557807
      objectReference: {fileID: 0}
    - target: {fileID: 4036555450032213455, guid: fe9ef16c3378cb746816a17e6a634b65,
        type: 3}
      propertyPath: m_Parameters.colorGradient.key1.r
      value: 1
      objectReference: {fileID: 0}
    - target: {fileID: 4036555450032213455, guid: fe9ef16c3378cb746816a17e6a634b65,
        type: 3}
      propertyPath: m_Parameters.colorGradient.key1.g
      value: 0.3548299
      objectReference: {fileID: 0}
    - target: {fileID: 4036555450032213455, guid: fe9ef16c3378cb746816a17e6a634b65,
        type: 3}
      propertyPath: m_Parameters.colorGradient.key1.b
      value: 0.2971698
      objectReference: {fileID: 0}
    m_RemovedComponents: []
  m_SourcePrefab: {fileID: 100100000, guid: fe9ef16c3378cb746816a17e6a634b65, type: 3}
